<?xml version="1.0" encoding="utf-8"?>
<!-- Generator: Adobe Illustrator 21.0.0, SVG Export Plug-In . SVG Version: 6.00 Build 0)  -->
<svg version="1.1" id="Layer_1" xmlns="http://www.w3.org/2000/svg" xmlns:xlink="http://www.w3.org/1999/xlink" x="0px" y="0px"
	 viewBox="0 0 6.5 6.6" style="enable-background:new 0 0 6.5 6.6;" xml:space="preserve">
<style type="text/css">
	.st0{fill:#231F20;}
</style>
<g>
	<polygon class="st0" points="5.2,2.6 5.2,6.6 4,6.6 4,4.7 2.5,4.7 2.5,6.6 1.2,6.6 1.2,2.6 	"/>
	<polygon class="st0" points="3.2,0 0,2.9 6.5,2.9 	"/>
</g>
</svg>
