<?xml version="1.0" encoding="utf-8"?>
<!-- Generator: Adobe Illustrator 21.0.0, SVG Export Plug-In . SVG Version: 6.00 Build 0)  -->
<svg version="1.1" id="Layer_1" xmlns="http://www.w3.org/2000/svg" xmlns:xlink="http://www.w3.org/1999/xlink" x="0px" y="0px"
	 viewBox="0 0 37.8 35.8" style="enable-background:new 0 0 37.8 35.8;" xml:space="preserve">
<style type="text/css">
	.st0{fill:none;stroke:#000000;stroke-width:0.907;stroke-miterlimit:10;}
</style>
<path d="M18.7,35.3c-0.7,0-1.2-0.6-1.2-1.2c0-0.7,0.5-1.2,1.2-1.2c0.7,0,1.2,0.6,1.2,1.2C19.9,34.7,19.4,35.3,18.7,35.3 M18.7,33
	c-0.6,0-1,0.5-1,1.1c0,0.6,0.5,1.1,1,1.1c0.6,0,1-0.5,1-1.1C19.8,33.4,19.3,33,18.7,33"/>
<path d="M35.9,9.6c-0.3,0-0.6-0.3-0.6-0.6c0-0.4,0.3-0.6,0.6-0.6c0.3,0,0.6,0.3,0.6,0.6C36.5,9.3,36.2,9.6,35.9,9.6 M35.9,8.6
	c-0.2,0-0.4,0.2-0.4,0.4c0,0.2,0.2,0.4,0.4,0.4c0.2,0,0.4-0.2,0.4-0.4C36.3,8.8,36.1,8.6,35.9,8.6"/>
<path d="M1.8,9.8c-0.3,0-0.6-0.3-0.6-0.6c0-0.4,0.3-0.6,0.6-0.6c0.3,0,0.6,0.3,0.6,0.6C2.4,9.5,2.2,9.8,1.8,9.8 M1.8,8.8
	C1.6,8.8,1.4,9,1.4,9.2c0,0.2,0.2,0.4,0.4,0.4c0.2,0,0.4-0.2,0.4-0.4C2.2,9,2.1,8.8,1.8,8.8"/>
<rect x="10.9" y="24.4" width="0.2" height="5.1"/>
<rect x="10.9" y="0.2" width="0.2" height="4.8"/>
<rect x="26.2" y="24.4" width="0.2" height="5.3"/>
<rect x="26.2" y="0.2" width="0.2" height="4.8"/>
<rect x="18.6" y="0.5" width="0.2" height="5.5"/>
<rect x="18.6" y="28.3" width="0.2" height="3.4"/>
<polygon points="13.7,10.1 13.5,10.1 13.6,7.9 13.8,7.9 "/>
<polygon points="14.4,10.1 14.3,7.9 14.5,7.9 14.6,10.1 "/>
<rect x="14" y="7.9" width="0.2" height="2.2"/>
<rect x="22.9" y="10.3" width="0.4" height="0.2"/>
<rect x="22.9" y="10.7" width="0.4" height="0.2"/>
<rect x="22.9" y="11.1" width="0.4" height="0.2"/>
<rect x="22.9" y="11.5" width="0.4" height="0.2"/>
<rect x="22.9" y="11.9" width="0.4" height="0.2"/>
<rect x="22.9" y="12.2" width="0.4" height="0.2"/>
<path d="M18.7,12.5c-0.4,0-0.6-0.1-0.6-0.1l0-0.2c0,0,0.5,0.1,1.2,0l0,0.2C19.1,12.5,18.9,12.5,18.7,12.5"/>
<path d="M18.7,14.3C18.3,14.3,18,14,18,14l0.1-0.2c0,0,0.5,0.4,1.1,0l0.1,0.2C19.1,14.2,18.9,14.3,18.7,14.3"/>
<path d="M22.8,13.2c-0.2-0.3-0.4-0.2-0.4-0.2l-0.1-0.2c0.1-0.1,0.4-0.1,0.7,0.2L22.8,13.2z"/>
<path d="M13.9,11.4l-0.2-0.1c0,0,0.2-0.2,0.4-0.2c0,0,0,0,0,0c0.1,0,0.2,0.1,0.3,0.2l-0.2,0.1c0-0.1-0.1-0.1-0.2-0.1
	C14,11.3,13.9,11.4,13.9,11.4"/>
<path d="M33.7,7.5h0.1V0.3h-30v7.2h0.1v0.2H3.8v8.7c0,0,0.1,3.7,2,7.4c1.7,3.4,5.4,7.6,13,8.1l0,0l0,0c7.6-0.5,11.3-4.7,13-8.1
	c1.9-3.7,2-7.3,2-7.4V7.7h-0.1V7.5z M33.6,16.3c0,0-0.1,3.6-1.9,7.3c-1.7,3.4-5.3,7.5-12.9,8c-7.5-0.5-11.2-4.6-12.9-8
	C4.1,20,4,16.4,4,16.3V0.5h29.6V16.3z"/>
<path d="M18.8,32.1L18.8,32.1C11,31.6,7.3,27.3,5.5,23.8c-1.9-3.8-2-7.5-2-7.5V0H34v16.3c0,0-0.1,3.7-2,7.5
	C30.3,27.3,26.6,31.6,18.8,32.1L18.8,32.1z M4.2,0.7v15.6c0,0,0.1,3.6,1.9,7.2c1.7,3.3,5.2,7.4,12.7,7.9c7.4-0.5,11-4.6,12.6-7.9
	c1.8-3.6,1.9-7.1,1.9-7.2V0.7H4.2z"/>
<path d="M37.6,12.9V7.5h-2.9v0.2h2.7l0,5.2c0,0.1,0.6,10.1-5.2,16.7c-3.1,3.6-7.6,5.6-13.1,5.8h-0.2c-5.6-0.3-10-2.2-13.1-5.8
	C-0.1,22.9,0.5,13,0.5,12.9V7.7H3V7.5H0.3l0,5.4C0.3,13-0.3,23,5.5,29.7c3.2,3.6,7.6,5.6,13.3,5.9H19c5.6-0.3,10.1-2.3,13.3-5.9
	C38.1,23,37.6,13,37.6,12.9"/>
<path d="M19,35.8h-0.2c-5.7-0.3-10.3-2.3-13.5-6C-0.6,23.1,0,12.9,0,12.8V7.2h3.1v0.7H0.7v4.9c0,0.1-0.5,10,5.1,16.5
	c3.1,3.5,7.5,5.5,13,5.8H19c5.5-0.3,9.9-2.2,13-5.8c5.7-6.5,5.1-16.4,5.1-16.5l0-5h-2.7V7.2h3.4v5.6c0,0.1,0.6,10.2-5.3,17
	C29.3,33.5,24.8,35.5,19,35.8L19,35.8z"/>
<rect x="3.8" y="7.5" width="0.1" height="0.2"/>
<rect x="33.7" y="7.5" width="0.1" height="0.2"/>
<polyline points="9.4,6.4 9.4,6.4 9.4,6.4 9.4,6.4 "/>
<path d="M13.1,23.5h11.4c0,0,0.1,0,0.1-0.1l3.5-16.7L28,6.5c0,0,0-0.1,0-0.1c0,0,0,0,0,0c0,0,0,0,0,0c0,0-1,0.3-2.4,0.3
	c-0.9,0-1.8-0.1-2.6-0.4C22.5,6.1,22,6,21.4,6C19.9,6,19,6.7,18.8,7C18.5,6.7,17.7,6,16.2,6c-0.5,0-1.1,0.1-1.7,0.3
	c-0.8,0.3-1.7,0.4-2.6,0.4c-1.4,0-2.3-0.3-2.4-0.3c0,0,0,0,0,0c0,0,0,0,0.1,0c0,0,0,0.1,0,0.1L9.4,6.7L13,23.4
	C13,23.5,13,23.5,13.1,23.5 M11.9,6.9c0.9,0,1.8-0.1,2.7-0.4c0.5-0.2,1.1-0.3,1.6-0.3c1.7,0,2.6,0.9,2.6,0.9c0,0,0.1,0,0.1,0
	c0,0,0.9-0.9,2.6-0.9c0.5,0,1.1,0.1,1.6,0.3c0.9,0.3,1.8,0.4,2.7,0.4c1.1,0,1.9-0.2,2.3-0.3l-3.5,16.7H13.2L9.6,6.6
	C10,6.7,10.8,6.9,11.9,6.9"/>
<path d="M28.2,6.4C28.2,6.4,28.1,6.4,28.2,6.4C28.2,6.4,28.2,6.4,28.2,6.4C28.2,6.4,28.2,6.4,28.2,6.4"/>
<path d="M28.8,7.2l-0.6-0.8c0,0,0,0,0,0c0,0,0,0.1,0,0.1l0,0.2l0.5,0.6l-2.4,11.1c0,0,0.1-0.1,0.1-0.1h0l0.1,0l1.4-6.7l-0.1-0.1
	c0,0-0.1-0.1-0.1-0.1l0.3-1.4c0,0,0-0.1,0.1-0.1c0.1,0,0.1-0.1,0.2-0.1L28.8,7.2C28.8,7.3,28.8,7.3,28.8,7.2"/>
<path d="M26.1,19.2l0.1-0.4l-1.1,5.4h-8.6c0,0,2.2,0,2.2,0.1c0,0,0,0,0,0c0,0,0,0,0,0c0,0-2.3,0.1-2.2,0.1h8.7c0,0,0.1,0,0.1-0.1
	l1-4.9c-0.1,0-0.1-0.1-0.1-0.1C26.1,19.3,26.1,19.3,26.1,19.2"/>
<path d="M28,6.5l0.1,0.2l0-0.2c0,0,0-0.1,0-0.1c0,0,0,0,0,0c0,0,0,0-0.1,0c0,0,0,0,0,0C28,6.4,28,6.5,28,6.5"/>
<path d="M11,18.4L11,18.4c0,0,0.1,0,0.1,0.1l-1.8-8.4l0.2,1.4c0,0,0,0.1-0.1,0.1l0,0l1.4,6.7L11,18.4z"/>
<path d="M12.3,24.4h6.3c0,0,0.1,0,0.1-0.1c0,0,0,0,0,0c0,0,0,0,0,0c0,0,0-0.1-0.1-0.1h-6.3l-1.2-5.7l0.1,0.7c0,0.1,0,0.1-0.1,0.1
	c0,0,0,0-0.1,0l1,4.9C12.2,24.4,12.2,24.4,12.3,24.4"/>
<path d="M9.4,10.1L8.8,7.3l0.6-0.7l0-0.2c0,0,0-0.1,0-0.1c0,0,0,0,0,0L8.6,7.2c0,0,0,0.1,0,0.1l0.5,2.6C9.2,9.9,9.2,10,9.4,10.1
	C9.3,10,9.4,10,9.4,10.1"/>
<path d="M9.6,6.4C9.6,6.4,9.5,6.4,9.6,6.4c-0.1,0-0.1,0-0.1,0c0,0,0,0,0,0c0,0,0,0.1,0,0.1l0,0.2l0.1-0.1C9.6,6.5,9.6,6.4,9.6,6.4"
	/>
<path d="M18.7,24.4C18.7,24.4,18.7,24.4,18.7,24.4C18.7,24.3,18.7,24.3,18.7,24.4C18.7,24.3,18.7,24.3,18.7,24.4
	C18.7,24.4,18.7,24.4,18.7,24.4"/>
<path d="M19.1,14.1c0,0-0.1,0.3-0.1,0.8h0.2c0-0.3,0.1-0.6,0.1-0.7c0,0,0.1-0.1,0.1-0.1L19.1,14.1C19.1,14.1,19.1,14.1,19.1,14.1
	C19.1,14.1,19.1,14.1,19.1,14.1"/>
<path d="M18.2,14.9h0.2c0-0.4-0.1-0.7-0.1-0.8c0,0,0,0,0,0c0,0,0,0,0,0H18c0,0,0.1,0.1,0.1,0.1C18.2,14.3,18.2,14.5,18.2,14.9"/>
<path d="M17.9,16c-0.2,0.4-0.6,0.6-1.1,0.7c0,0-0.1,0-0.1,0.1l-0.3,0.6c0,0,0,0.1,0,0.1c0,0,0.1,0.1,0.1,0.1H21c0,0,0.1,0,0.1-0.1
	c0,0,0-0.1,0-0.1l-0.3-0.6c0,0,0,0-0.1-0.1c-0.5-0.1-0.9-0.3-1.1-0.7c-0.2-0.3-0.3-0.6-0.3-1H19c0,0.3,0.1,0.7,0.3,1.1
	c0.3,0.4,0.7,0.7,1.2,0.7l0.2,0.4h-2.2h-2l0.2-0.4c0.6-0.1,1-0.3,1.2-0.7c0.2-0.3,0.3-0.7,0.3-1.1h-0.2C18.2,15.4,18.1,15.8,17.9,16
	"/>
<path d="M18.2,12.4c0,0,0-0.1,0-0.1c0,0,0-0.1-0.1-0.1c-0.7-0.1-1.2-0.3-1.5-0.7c-0.4-0.7-0.1-1.5-0.1-1.5l0.7-2.1h2.9l0.7,2.1
	c0,0,0.3,0.9-0.1,1.5c-0.3,0.4-0.8,0.7-1.5,0.7c0,0-0.1,0-0.1,0.1c0,0,0,0.1,0,0.1c0,0,0.6,0.5,0,1.5h0.2c0.4-0.7,0.2-1.2,0-1.5
	c0.7-0.1,1.2-0.4,1.5-0.8c0.4-0.7,0.1-1.7,0.1-1.7l-0.7-2.2c0,0-0.1-0.1-0.1-0.1h-3.1c0,0-0.1,0-0.1,0.1l-0.7,2.2c0,0-0.4,1,0.1,1.7
	c0.3,0.4,0.8,0.7,1.5,0.8c-0.2,0.2-0.4,0.8,0,1.5h0.2C17.6,12.9,18.2,12.4,18.2,12.4"/>
<path d="M21.9,14.1c0-0.1,0-0.1,0-0.2h-2.4c0,0.1-0.1,0.1-0.1,0.2H21.9z"/>
<path d="M23.6,14.1c0,0,1.1,0.1,1.6,1.2c0.3,0.6,0.2,1.8-0.3,2.9c-0.5,1-1.6,2.4-3.9,3c0,0,0,0,0,0c0,0-0.4,0.2-0.3,0.5
	c0,0.2,0.2,0.3,0.5,0.4c0,0,0,0,0,0c0,0,0.7,0,0.9,0.4h-3c0.1,0,0.1,0,0.1,0.1c0,0.1,0,0.1-0.1,0.1h3.2c0,0,0.1,0,0.1,0
	c0,0,0-0.1,0-0.1c-0.1-0.6-0.9-0.7-1.1-0.7c-0.3-0.1-0.3-0.2-0.3-0.2c0-0.1,0.1-0.2,0.2-0.3c2.4-0.6,3.5-2,4-3.1
	c0.6-1.2,0.6-2.5,0.3-3.1c-0.5-1.2-1.7-1.3-1.8-1.3h-0.4c0,0.1,0,0.1,0,0.2H23.6z"/>
<path d="M19.1,14.1h0.2c0-0.1,0.1-0.1,0.1-0.2h-0.2C19.2,13.9,19.2,14,19.1,14.1"/>
<path d="M18,14.1c0-0.1-0.1-0.1-0.1-0.2h-3.3l0,0.2H18z"/>
<path d="M16.5,21.4c0.1,0,0.2,0.2,0.2,0.3c0,0,0,0.1-0.3,0.2c-0.1,0-1,0.1-1.1,0.7c0,0,0,0.1,0,0.1c0,0,0,0,0.1,0h3.2
	c-0.1,0-0.1,0-0.1-0.1c0-0.1,0-0.1,0.1-0.1h-3c0.2-0.4,0.9-0.4,0.9-0.4c0,0,0,0,0,0c0.3-0.1,0.5-0.2,0.5-0.4c0-0.3-0.3-0.4-0.3-0.5
	c0,0,0,0,0,0c-2.3-0.6-3.4-2-3.9-3c-0.5-1.1-0.6-2.3-0.3-2.9c0.3-0.7,0.8-0.9,1.2-1.1l0-0.2c-0.4,0.1-1,0.4-1.4,1.2
	c-0.3,0.6-0.2,1.9,0.3,3.1C13,19.3,14.1,20.7,16.5,21.4"/>
<path d="M18.3,14.1c-0.1-0.1-0.1-0.1-0.1-0.2h-0.2c0,0.1,0.1,0.1,0.1,0.2H18.3z"/>
<path d="M19,22.6c0-0.1,0-0.1-0.1-0.1h-0.3c-0.1,0-0.1,0-0.1,0.1c0,0.1,0,0.1,0.1,0.1h0.3C19,22.7,19,22.6,19,22.6"/>
<path d="M20.6,15.1c0.2,0.4,1.2,3-0.3,5.3h-3.1c-0.2-0.3-1.7-2.1-0.6-5.1c0-0.1,0.1-0.2,0.1-0.2c0,0,0,0,0,0h1.4c0-0.1,0-0.1,0-0.2
	h-1.5c0,0,0,0-0.1,0l0,0c0,0-0.1,0-0.1,0.1c0,0.1-0.1,0.2-0.1,0.3c0,0,0,0,0,0.1c0,0,0.1,0,0.1,0c0.1,0,0.1,0.1,0.1,0.1
	c0,0.1-0.1,0.1-0.1,0.1c0,0-0.1,0-0.1,0c-0.1,0.2-0.1,0.3-0.2,0.5c0,0,0,0,0.1,0c0.1,0,0.1,0,0.1,0.1c0,0.1,0,0.1-0.1,0.1
	c-0.1,0-0.1,0-0.1,0C16,16.8,16,17.4,16,17.9c0,0,0.1,0,0.1,0c0.1,0,0.1,0.1,0.1,0.1c0,0-0.1,0.1-0.1,0.1c0,0,0,0,0,0c0,0,0,0,0,0
	c0,0.2,0.1,0.5,0.1,0.7c0,0,0.1,0,0.1,0c0.1,0,0.1,0.1,0.1,0.1c0,0,0,0.1-0.1,0.1c0,0,0,0.1,0,0.1c0.3,0.9,0.8,1.4,0.8,1.4
	c0,0,0,0,0.1,0h3.2c0,0,0.1,0,0.1,0c1.8-2.6,0.4-5.6,0.4-5.6c0,0-0.1-0.1-0.1-0.1h-1.5c0,0.1,0,0.1,0,0.2H20.6z"/>
<path d="M18.4,15.1c0-0.1,0-0.1,0-0.2h-0.2c0,0.1,0,0.1,0,0.2H18.4z"/>
<path d="M19,15.1h0.2c0-0.1,0-0.1,0-0.2H19C19,14.9,19,15,19,15.1"/>
<path d="M17.4,18.3h-0.6c0,0-0.1,0-0.1,0c0,0,0,0.1,0,0.1l0.5,1.4c0,0,0.1,0.1,0.1,0.1c0,0,0,0,0,0c0.1,0,0.1-0.1,0.1-0.1L17,18.5
	h0.4c0.1,0,0.1,0,0.1-0.1C17.5,18.3,17.5,18.3,17.4,18.3"/>
<path d="M18.5,18.3h-0.6c0,0-0.1,0-0.1,0c0,0,0,0.1,0,0.1l0.1,1.5c0,0.1,0,0.1,0.1,0.1c0,0,0,0,0,0c0.1,0,0.1-0.1,0.1-0.1L18,18.5
	h0.5c0.1,0,0.1,0,0.1-0.1C18.6,18.3,18.6,18.3,18.5,18.3"/>
<path d="M19.8,18.4c0-0.1,0-0.1-0.1-0.1h-0.6c-0.1,0-0.1,0-0.1,0.1l-0.2,1.5c0,0.1,0,0.1,0.1,0.1c0,0,0,0,0,0c0.1,0,0.1,0,0.1-0.1
	l0.2-1.4h0.5C19.7,18.5,19.8,18.4,19.8,18.4"/>
<path d="M20.7,18.3h-0.5c0,0-0.1,0-0.1,0.1l-0.4,1.5c0,0.1,0,0.1,0.1,0.1c0,0,0,0,0,0c0,0,0.1,0,0.1-0.1l0.4-1.4h0.5
	c0.1,0,0.1,0,0.1-0.1C20.8,18.3,20.8,18.3,20.7,18.3"/>
<path d="M22.4,13.1c0,0,0.1-0.1,0.1-0.1c0,0,0-0.1-0.1-0.1c-0.1,0-0.2-0.3-0.2-0.4V7.9c0.1,0.2,0.2,0.5,0.2,0.5
	c1.4,3.7,0.4,4.7,0.4,4.7c0,0,0,0.1,0,0.1c0.1,0.1,0.1,0.3,0.2,0.7h0.2c0-0.3-0.1-0.5-0.2-0.7c0.2-0.3,0.9-1.5-0.4-4.9
	c0,0-0.2-0.5-0.5-0.7c0,0-0.1,0-0.1,0c0,0-0.1,0.1-0.1,0.1v4.8c0,0,0,0.4,0.2,0.6c-0.1,0.1-0.2,0.4-0.2,0.9h0.2
	C22.2,13.2,22.4,13.1,22.4,13.1"/>
<path d="M21.9,17.7c0,0,0,0.4,0.2,0.6c0.1,0.1,0.2,0.2,0.4,0.2c0,0,0.1,0,0.1,0c0,0,0,0,0,0c0.1,0,0.5-0.1,0.7-0.7
	c0.1-0.5,0-2.5-0.2-3.7H23c0.2,1.2,0.3,3.1,0.2,3.6c-0.1,0.5-0.4,0.6-0.5,0.6h0c0,0,0,0,0,0c-0.2,0-0.3,0-0.4-0.1
	c-0.2-0.2-0.1-0.5-0.1-0.5v-3.4c0-0.1,0-0.2,0-0.3h-0.2c0,0.1,0,0.2,0,0.3V17.7z"/>
<path d="M22.1,14.1c0-0.1,0-0.1,0-0.2h-0.2c0,0.1,0,0.1,0,0.2H22.1z"/>
<path d="M23,14.1h0.2c0-0.1,0-0.1,0-0.2h-0.2C23,13.9,23,14,23,14.1"/>
<path d="M13.6,18.3c0.1,0.1,0.3,0.2,0.5,0.2c0,0,0,0,0,0c0,0,0,0,0,0c0,0,0,0,0.1,0c0.2,0,0.3-0.1,0.4-0.2c0.2-0.2,0.2-0.4,0.2-0.6
	c-0.1-0.2-0.1-0.4-0.1-0.6c0-0.2,0-0.4,0.1-0.6l-0.2-2.5h-0.2l0.2,3.4c0,0,0,0.5-0.2,0.8c-0.1,0.1-0.2,0.1-0.3,0.1c0,0,0,0-0.1,0
	c0,0,0,0,0,0c0,0,0,0,0,0c-0.1,0-0.2,0-0.3-0.1c-0.2-0.2-0.2-0.8-0.2-0.8l0.2-3.3c-0.1,0-0.1,0-0.2,0.1l-0.2,3.2
	C13.3,17.4,13.3,18,13.6,18.3"/>
<path d="M13.9,11.4C13.9,11.3,13.9,11.3,13.9,11.4c-0.1-0.1-0.1-0.1-0.1-0.1c-0.1,0-0.2,0-0.3-0.1c-0.3-0.3-0.3-1.4-0.2-1.8l0.2-1.5
	h1.2l0.2,1.5c0,0.4,0.1,1.5-0.2,1.8c-0.1,0.1-0.2,0.1-0.3,0.1c0,0-0.1,0-0.1,0c0,0,0,0.1,0,0.1l0.2,2.5h0.2l-0.1-2.4
	c0.1,0,0.2-0.1,0.3-0.2c0.5-0.5,0.3-1.9,0.3-2l-0.2-1.6c0-0.1,0-0.1-0.1-0.1h-1.4c-0.1,0-0.1,0-0.1,0.1l-0.2,1.6
	c0,0.1-0.2,1.5,0.3,2c0.1,0.1,0.2,0.1,0.3,0.2l-0.1,2.5c0.1,0,0.1,0,0.2,0L13.9,11.4z"/>
<path d="M13.7,14.1l0-0.2c-0.1,0-0.1,0-0.2,0.1l0,0.2C13.6,14.1,13.7,14.1,13.7,14.1"/>
<polygon points="14.4,14.1 14.6,14.1 14.6,13.9 14.4,13.9 "/>
<path d="M4.8,16.7c0,0,0.7,0.1,1.5,0.8c0,0,0.1,0.1,0.1,0.1c0.4,0.4,1,1,2.3,1c0.1,0,0.2,0,0.2,0l2,0l0.1,0.6
	c-0.4,0.2-2.1,1-2.1,2.7c0.1,1.9,1.4,2.5,4,3c2.7,0.5,5.5,2.5,5.5,3.4c0,0.1,0,0.1,0.1,0.1c0.1,0,0.1,0,0.1-0.1
	c0-0.9,2.8-2.9,5.5-3.4c2.6-0.5,3.9-1,4-3c0.1-1.6-1.6-2.5-2-2.7l0.1-0.6l1.9,0c1.5,0.1,2.1-0.6,2.5-1c0,0,0.1-0.1,0.1-0.1
	c0.8-0.7,1.5-0.8,1.5-0.8c0,0,0.1,0,0.1-0.1s0-0.1-0.1-0.1c-0.6-0.3-1.3-1.6-1.6-2.7c-0.2-0.8-1.2-1.4-1.2-1.4L28,11.5l0.3-1.3
	c3.5-1.3,2.7-5.9,2.6-5.9c0,0,0-0.1-0.1-0.1c0,0-0.1,0-0.1,0c-0.9,0.6-2,0.9-3.6,0.9c-1.2,0-2.4-0.2-3.4-0.3
	c-0.4-0.1-0.9-0.1-1.2-0.2c-0.2,0-0.3,0-0.5,0c-2,0-3.3,1.3-3.3,1.3l-0.1,0c-0.3-0.3-1.6-1.3-3.4-1.3c-0.1,0-0.3,0-0.4,0
	c-0.4,0-0.8,0.1-1.2,0.2c-1,0.1-2.2,0.3-3.4,0.3c-1.5,0-2.7-0.3-3.6-0.9c0,0-0.1,0-0.1,0c0,0-0.1,0-0.1,0.1c0,0-0.7,4.6,2.7,5.9
	l0.2,1.3l-1.8,0.9c0,0-1.1,0.6-1.2,1.4c-0.3,1.1-0.9,2.5-1.6,2.7C4.8,16.5,4.7,16.5,4.8,16.7C4.8,16.6,4.8,16.7,4.8,16.7 M6.6,13.8
	c0.2-0.7,1.1-1.3,1.1-1.3l1.8-0.9L9.1,9.9C6.3,8.8,6.5,5.3,6.6,4.5c0.9,0.5,2,0.8,3.5,0.8c1.2,0,2.4-0.2,3.4-0.3
	c0.4-0.1,0.9-0.1,1.2-0.2c0.1,0,0.3,0,0.4,0c1.9,0,3.3,1.3,3.4,1.3c0,0,0.1,0,0.1,0L18.9,6c0,0,1.3-1.2,3.2-1.2c0.1,0,0.3,0,0.4,0
	c0.4,0,0.8,0.1,1.2,0.2c1.1,0.1,2.2,0.3,3.4,0.3c1.5,0,2.6-0.3,3.5-0.8c0.1,0.8,0.4,4.3-2.4,5.5l-0.4,1.7l1.7,0.9c0,0,1,0.6,1.1,1.3
	c0.2,1,0.8,2.2,1.4,2.7c-0.3,0.1-0.8,0.3-1.3,0.8c0,0-0.1,0.1-0.1,0.1c-0.4,0.4-0.9,1-2.1,1c-0.1,0-0.1,0-0.2,0l-1.9,0l-0.2,1
	c0.4,0.2,1.9,1,1.8,2.5c-0.1,1.6-1,2.3-3.8,2.8c-2.4,0.4-5,2.1-5.6,3.2c-0.5-1.1-3.2-2.8-5.6-3.2c-2.9-0.5-3.8-1.2-3.8-2.8
	c-0.1-1.5,1.5-2.3,1.9-2.5l-0.2-1.1l-2,0c-1.4,0.1-2-0.5-2.4-0.9c0-0.1-0.1-0.1-0.1-0.1c-0.5-0.5-1-0.7-1.3-0.8
	C5.8,16,6.3,14.8,6.6,13.8"/>
<path class="st0" d="M4.8,16.7c0,0,0.7,0.1,1.5,0.8c0,0,0.1,0.1,0.1,0.1c0.4,0.4,1,1,2.3,1c0.1,0,0.2,0,0.2,0l2,0l0.1,0.6
	c-0.4,0.2-2.1,1-2.1,2.7c0.1,1.9,1.4,2.5,4,3c2.7,0.5,5.5,2.5,5.5,3.4c0,0.1,0,0.1,0.1,0.1c0.1,0,0.1,0,0.1-0.1
	c0-0.9,2.8-2.9,5.5-3.4c2.6-0.5,3.9-1,4-3c0.1-1.6-1.6-2.5-2-2.7l0.1-0.6l1.9,0c1.5,0.1,2.1-0.6,2.5-1c0,0,0.1-0.1,0.1-0.1
	c0.8-0.7,1.5-0.8,1.5-0.8c0,0,0.1,0,0.1-0.1s0-0.1-0.1-0.1c-0.6-0.3-1.3-1.6-1.6-2.7c-0.2-0.8-1.2-1.4-1.2-1.4L28,11.5l0.3-1.3
	c3.5-1.3,2.7-5.9,2.6-5.9c0,0,0-0.1-0.1-0.1c0,0-0.1,0-0.1,0c-0.9,0.6-2,0.9-3.6,0.9c-1.2,0-2.4-0.2-3.4-0.3
	c-0.4-0.1-0.9-0.1-1.2-0.2c-0.2,0-0.3,0-0.5,0c-2,0-3.3,1.3-3.3,1.3l-0.1,0c-0.3-0.3-1.6-1.3-3.4-1.3c-0.1,0-0.3,0-0.4,0
	c-0.4,0-0.8,0.1-1.2,0.2c-1,0.1-2.2,0.3-3.4,0.3c-1.5,0-2.7-0.3-3.6-0.9c0,0-0.1,0-0.1,0c0,0-0.1,0-0.1,0.1c0,0-0.7,4.6,2.7,5.9
	l0.2,1.3l-1.8,0.9c0,0-1.1,0.6-1.2,1.4c-0.3,1.1-0.9,2.5-1.6,2.7C4.8,16.5,4.7,16.5,4.8,16.7C4.8,16.6,4.8,16.7,4.8,16.7z M6.6,13.8
	c0.2-0.7,1.1-1.3,1.1-1.3l1.8-0.9L9.1,9.9C6.3,8.8,6.5,5.3,6.6,4.5c0.9,0.5,2,0.8,3.5,0.8c1.2,0,2.4-0.2,3.4-0.3
	c0.4-0.1,0.9-0.1,1.2-0.2c0.1,0,0.3,0,0.4,0c1.9,0,3.3,1.3,3.4,1.3c0,0,0.1,0,0.1,0L18.9,6c0,0,1.3-1.2,3.2-1.2c0.1,0,0.3,0,0.4,0
	c0.4,0,0.8,0.1,1.2,0.2c1.1,0.1,2.2,0.3,3.4,0.3c1.5,0,2.6-0.3,3.5-0.8c0.1,0.8,0.4,4.3-2.4,5.5l-0.4,1.7l1.7,0.9c0,0,1,0.6,1.1,1.3
	c0.2,1,0.8,2.2,1.4,2.7c-0.3,0.1-0.8,0.3-1.3,0.8c0,0-0.1,0.1-0.1,0.1c-0.4,0.4-0.9,1-2.1,1c-0.1,0-0.1,0-0.2,0l-1.9,0l-0.2,1
	c0.4,0.2,1.9,1,1.8,2.5c-0.1,1.6-1,2.3-3.8,2.8c-2.4,0.4-5,2.1-5.6,3.2c-0.5-1.1-3.2-2.8-5.6-3.2c-2.9-0.5-3.8-1.2-3.8-2.8
	c-0.1-1.5,1.5-2.3,1.9-2.5l-0.2-1.1l-2,0c-1.4,0.1-2-0.5-2.4-0.9c0-0.1-0.1-0.1-0.1-0.1c-0.5-0.5-1-0.7-1.3-0.8
	C5.8,16,6.3,14.8,6.6,13.8z"/>
<polygon points="26.2,18.8 26.3,18.5 26.3,18.5 "/>
<path d="M9.4,10.1L9.4,10.1L9.4,10.1z"/>
<polygon points="11.1,18.5 11.1,18.5 11.2,18.6 "/>
<path d="M28,10.1l-0.3,1.4c0,0,0,0.1,0.1,0.1l0.1,0.1l0.4-1.7C28.2,10,28.2,10,28,10.1C28.1,10,28.1,10,28,10.1"/>
<path d="M26.4,18.4C26.3,18.4,26.3,18.4,26.4,18.4l-0.2,0.5l-0.1,0.4c0,0,0,0.1,0.1,0.1c0,0,0,0,0.1,0.1l0.2-1L26.4,18.4L26.4,18.4z
	"/>
<path d="M9.6,11.5l-0.2-1.4v0c0,0,0-0.1-0.1-0.1c-0.1,0-0.1-0.1-0.2-0.1l0.4,1.7l0,0C9.6,11.6,9.6,11.6,9.6,11.5"/>
<path d="M11.3,19.3l-0.1-0.7l0-0.1c0,0-0.1-0.1-0.1-0.1h0l-0.1,0l0.2,1.1c0.1,0,0.1,0,0.1,0C11.3,19.4,11.3,19.3,11.3,19.3"/>
<path d="M14.9,17.2c0-0.6,0.2-1,0.5-1.3c0.3-0.3,0.8-0.4,1-0.4c0-0.1,0-0.1,0.1-0.2c-0.2,0-0.8,0-1.2,0.5c-0.2,0.2-0.4,0.5-0.4,0.8
	l0,0.8c0,0,0,0.2,0,0.4c0.3,0.9,1.4,1.2,1.4,1.3c0,0,0,0,0,0c0,0,0,0,0,0c0-0.1,0-0.1-0.1-0.2C15.9,18.7,14.9,18.2,14.9,17.2"/>
<path d="M16.5,15.5c0.1,0,0.1,0,0.1-0.1c0-0.1,0-0.1-0.1-0.1c0,0,0,0-0.1,0c0,0.1,0,0.1-0.1,0.2C16.4,15.5,16.5,15.5,16.5,15.5"/>
<path d="M16.2,18.8C16.2,18.8,16.2,18.8,16.2,18.8c-0.1,0,0,0.1,0,0.2c0,0,0.1,0,0.1-0.1C16.3,18.9,16.3,18.8,16.2,18.8"/>
<path d="M14.8,17.4l-0.1-0.8c0,0.2-0.1,0.4-0.1,0.6c0,0.2,0,0.4,0.1,0.6C14.8,17.6,14.8,17.4,14.8,17.4"/>
<path d="M15.3,17.2c0,0,0.1,0.7,0.7,0.9c0-0.1,0-0.2,0-0.2c-0.4-0.2-0.5-0.7-0.5-0.7c0,0-0.1-0.8,0.6-0.9c0-0.1,0-0.2,0.1-0.2
	C15.2,16.2,15.3,17.2,15.3,17.2"/>
<path d="M16.3,16.2c0.1,0,0.1-0.1,0.1-0.1c0-0.1-0.1-0.1-0.1-0.1c0,0,0,0-0.1,0c0,0.1,0,0.2-0.1,0.2C16.2,16.2,16.2,16.2,16.3,16.2"
	/>
<path d="M16.1,18.1C16.1,18.1,16.1,18.1,16.1,18.1c0.1,0,0.1,0,0.1-0.1c0-0.1,0-0.1-0.1-0.1c0,0-0.1,0-0.1,0C16,18,16,18,16.1,18.1
	C16,18.1,16,18.1,16.1,18.1"/>
<path d="M34.4,16.5c0,0-0.1,3.8-2,7.7c-1.8,3.6-5.6,7.9-13.6,8.5c-8-0.5-11.8-4.9-13.6-8.4c-2-3.9-2-7.7-2-7.7V7.7H3v8.8
	c0,0,0.1,3.9,2.1,7.8c1.8,3.6,5.7,8,13.8,8.6l0,0l0,0c8.1-0.5,11.9-5,13.8-8.6c2-3.9,2.1-7.7,2.1-7.8V7.7h-0.2V16.5z"/>
<rect x="3" y="7.5" width="0.2" height="0.2"/>
<rect x="34.4" y="7.5" width="0.2" height="0.2"/>
<polygon points="25,24.3 24.3,23.4 24.5,23.3 25.1,24.2 "/>
<polygon points="12.5,24.4 12.3,24.2 13.1,23.2 13.3,23.4 "/>
<path d="M34.6,2.5c0,0,0-0.2,0-0.2c0,0-0.1,0.1-0.1,0.1v5.1h0.2L34.6,2.5"/>
<polyline points="3,2.3 3.6,0 3.6,0.7 3.2,2.4 3.2,7.5 3,7.5 3,2.3 3.2,2.4 "/>
<path d="M3,2.5C3,2.5,3,2.5,3,2.5"/>
</svg>
